<?xml version="1.0" encoding="utf-8"?>
<!-- Generator: Adobe Illustrator 24.1.1, SVG Export Plug-In . SVG Version: 6.00 Build 0)  -->
<svg version="1.1" id="Layer_1" xmlns="http://www.w3.org/2000/svg" xmlns:xlink="http://www.w3.org/1999/xlink" x="0px" y="0px"
	 viewBox="0 0 29 25" style="enable-background:new 0 0 29 25;" xml:space="preserve">
<style type="text/css">
	.st0{fill:#71C285;}
	.st1{fill:#4FBA6F;}
	.st2{fill:#24AE5F;}
</style>
<path class="st0" d="M7,14H0v11h7V14z"/>
<path class="st1" d="M18,7h-7v18h7V7z"/>
<path class="st2" d="M29,0h-8v25h8V0z"/>
</svg>
